{
    "name": "root",
    "gauges": {
        "AgentSI.Policy.Entropy.mean": {
            "value": -5.51643180847168,
            "min": -5.51643180847168,
            "max": 1.2886050939559937,
            "count": 25
        },
        "AgentSI.Policy.Entropy.sum": {
            "value": -149969.71875,
            "min": -149969.71875,
            "max": 26469.236328125,
            "count": 25
        },
        "AgentSI.Step.mean": {
            "value": 499944.0,
            "min": 19996.0,
            "max": 499944.0,
            "count": 25
        },
        "AgentSI.Step.sum": {
            "value": 499944.0,
            "min": 19996.0,
            "max": 499944.0,
            "count": 25
        },
        "AgentSI.Policy.ExtrinsicValueEstimate.mean": {
            "value": -0.009714464657008648,
            "min": -0.3438650965690613,
            "max": 0.3178137540817261,
            "count": 25
        },
        "AgentSI.Policy.ExtrinsicValueEstimate.sum": {
            "value": -3.0794854164123535,
            "min": -110.03683471679688,
            "max": 103.92510223388672,
            "count": 25
        },
        "AgentSI.Policy.GailValueEstimate.mean": {
            "value": 0.4652993977069855,
            "min": 0.4652993977069855,
            "max": 16.92776870727539,
            "count": 25
        },
        "AgentSI.Policy.GailValueEstimate.sum": {
            "value": 147.49990844726562,
            "min": 147.49990844726562,
            "max": 5433.8134765625,
            "count": 25
        },
        "AgentSI.Environment.EpisodeLength.mean": {
            "value": 124.0,
            "min": 124.0,
            "max": 808.2,
            "count": 25
        },
        "AgentSI.Environment.EpisodeLength.sum": {
            "value": 12400.0,
            "min": 8082.0,
            "max": 13888.0,
            "count": 25
        },
        "AgentSI.Environment.CumulativeReward.mean": {
            "value": 0.0,
            "min": 0.0,
            "max": 2.0,
            "count": 25
        },
        "AgentSI.Environment.CumulativeReward.sum": {
            "value": 0.0,
            "min": 0.0,
            "max": 36.0,
            "count": 25
        },
        "AgentSI.Policy.ExtrinsicReward.mean": {
            "value": 0.0,
            "min": 0.0,
            "max": 2.0,
            "count": 25
        },
        "AgentSI.Policy.ExtrinsicReward.sum": {
            "value": 0.0,
            "min": 0.0,
            "max": 36.0,
            "count": 25
        },
        "AgentSI.Policy.GailReward.mean": {
            "value": 1.5616789773257092,
            "min": 1.5616789773257092,
            "max": 191.1580869731578,
            "count": 25
        },
        "AgentSI.Policy.GailReward.sum": {
            "value": 154.6062187552452,
            "min": 154.6062187552452,
            "max": 2102.7389567047358,
            "count": 25
        },
        "AgentSI.Losses.PolicyLoss.mean": {
            "value": 0.13656691689889325,
            "min": 0.042270167790998694,
            "max": 0.17971425594173762,
            "count": 25
        },
        "AgentSI.Losses.PolicyLoss.sum": {
            "value": 2.4582045041800784,
            "min": 0.8031331880289752,
            "max": 3.4145708628930147,
            "count": 25
        },
        "AgentSI.Losses.ValueLoss.mean": {
            "value": 0.0024998499224979983,
            "min": 0.0019122256425261083,
            "max": 10.861687314455155,
            "count": 25
        },
        "AgentSI.Losses.ValueLoss.sum": {
            "value": 0.04499729860496397,
            "min": 0.03442006156546995,
            "max": 195.5103716601928,
            "count": 25
        },
        "AgentSI.Policy.LearningRate.mean": {
            "value": 6.106297964600001e-06,
            "min": 6.106297964600001e-06,
            "max": 0.0002939282020239333,
            "count": 25
        },
        "AgentSI.Policy.LearningRate.sum": {
            "value": 0.00010991336336280002,
            "min": 0.00010991336336280002,
            "max": 0.0053594797135068,
            "count": 25
        },
        "AgentSI.Policy.Epsilon.mean": {
            "value": 0.1020354,
            "min": 0.1020354,
            "max": 0.19797606666666667,
            "count": 25
        },
        "AgentSI.Policy.Epsilon.sum": {
            "value": 1.8366372,
            "min": 1.8366372,
            "max": 3.6864932000000006,
            "count": 25
        },
        "AgentSI.Policy.Beta.mean": {
            "value": 1.997346e-05,
            "min": 1.997346e-05,
            "max": 0.0004900827266666666,
            "count": 25
        },
        "AgentSI.Policy.Beta.sum": {
            "value": 0.00035952228,
            "min": 0.00035952228,
            "max": 0.00894381668,
            "count": 25
        },
        "AgentSI.Policy.GAILPolicyEstimate.mean": {
            "value": 0.030002338165003393,
            "min": 0.030002338165003393,
            "max": 0.31324216192243276,
            "count": 25
        },
        "AgentSI.Policy.GAILPolicyEstimate.sum": {
            "value": 0.5400420869700611,
            "min": 0.5400420869700611,
            "max": 5.638358914603789,
            "count": 25
        },
        "AgentSI.Policy.GAILExpertEstimate.mean": {
            "value": 0.949625733549948,
            "min": 0.7385794782528171,
            "max": 0.949625733549948,
            "count": 25
        },
        "AgentSI.Policy.GAILExpertEstimate.sum": {
            "value": 17.093263203899063,
            "min": 13.294430608550709,
            "max": 18.020723188916843,
            "count": 25
        },
        "AgentSI.Losses.GAILLoss.mean": {
            "value": 0.09214691152037295,
            "min": 0.09214691152037295,
            "max": 0.8235724297938523,
            "count": 25
        },
        "AgentSI.Losses.GAILLoss.sum": {
            "value": 1.658644407366713,
            "min": 1.658644407366713,
            "max": 14.824303736289341,
            "count": 25
        },
        "AgentSI.Policy.GAILGradMagLoss.mean": {
            "value": 0.055266518249279924,
            "min": 0.055266518249279924,
            "max": 4.527361170561226,
            "count": 25
        },
        "AgentSI.Policy.GAILGradMagLoss.sum": {
            "value": 0.9947973284870386,
            "min": 0.9947973284870386,
            "max": 81.49250107010207,
            "count": 25
        },
        "AgentSI.Losses.PretrainingLoss.mean": {
            "value": 0.12901129585960658,
            "min": 0.12901129585960658,
            "max": 0.8479019058523355,
            "count": 25
        },
        "AgentSI.Losses.PretrainingLoss.sum": {
            "value": 2.3222033254729184,
            "min": 2.3222033254729184,
            "max": 15.262234305342039,
            "count": 25
        },
        "AgentSI.IsTraining.mean": {
            "value": 1.0,
            "min": 1.0,
            "max": 1.0,
            "count": 25
        },
        "AgentSI.IsTraining.sum": {
            "value": 1.0,
            "min": 1.0,
            "max": 1.0,
            "count": 25
        }
    },
    "metadata": {
        "timer_format_version": "0.1.0",
        "start_time_seconds": "1642624161",
        "python_version": "3.9.1 (tags/v3.9.1:1e5d33e, Dec  7 2020, 17:08:21) [MSC v.1927 64 bit (AMD64)]",
        "command_line_arguments": "C:\\Users\\coundbla\\Documents\\GameJam\\MyFirstGameJam_git\\ML_Agents\\mltest1\\Scripts\\mlagents-learn config/AgentSI.yaml --run-id=AgentSI_Imitation --force",
        "mlagents_version": "0.27.0",
        "mlagents_envs_version": "0.27.0",
        "communication_protocol_version": "1.5.0",
        "pytorch_version": "1.10.1+cpu",
        "numpy_version": "1.21.5",
        "end_time_seconds": "1642633808"
    },
    "total": 9647.2160139,
    "count": 1,
    "self": 0.019553300000552554,
    "children": {
        "run_training.setup": {
            "total": 0.11340820000000007,
            "count": 1,
            "self": 0.11340820000000007
        },
        "TrainerController.start_learning": {
            "total": 9647.0830524,
            "count": 1,
            "self": 20.071974700285864,
            "children": {
                "TrainerController._reset_env": {
                    "total": 37.1992821,
                    "count": 1,
                    "self": 22.610530400000002,
                    "children": {
                        "demo_to_buffer": {
                            "total": 14.588751699999996,
                            "count": 2,
                            "self": 0.0004194999999960203,
                            "children": {
                                "load_demonstration": {
                                    "total": 0.20174949999999825,
                                    "count": 2,
                                    "self": 0.19840250000000026,
                                    "children": {
                                        "read_file": {
                                            "total": 0.0033469999999979905,
                                            "count": 16,
                                            "self": 0.0033469999999979905
                                        }
                                    }
                                },
                                "make_demo_buffer": {
                                    "total": 14.386582700000002,
                                    "count": 2,
                                    "self": 2.437543299999529,
                                    "children": {
                                        "steps_from_proto": {
                                            "total": 11.949039400000473,
                                            "count": 70220,
                                            "self": 8.84128030000172,
                                            "children": {
                                                "_process_rank_one_or_two_observation": {
                                                    "total": 3.107759099998752,
                                                    "count": 140440,
                                                    "self": 3.107759099998752
                                                }
                                            }
                                        }
                                    }
                                }
                            }
                        }
                    }
                },
                "TrainerController.advance": {
                    "total": 9589.672972199713,
                    "count": 611400,
                    "self": 20.643730000507276,
                    "children": {
                        "env_step": {
                            "total": 8017.385198199176,
                            "count": 611400,
                            "self": 6841.322129099158,
                            "children": {
                                "SubprocessEnvManager._take_step": {
                                    "total": 1162.737503699815,
                                    "count": 611400,
                                    "self": 51.90231289978897,
                                    "children": {
                                        "TorchPolicy.evaluate": {
                                            "total": 1110.835190800026,
                                            "count": 611167,
                                            "self": 285.3691657001543,
                                            "children": {
                                                "TorchPolicy.sample_actions": {
                                                    "total": 825.4660250998718,
                                                    "count": 611167,
                                                    "self": 825.4660250998718
                                                }
                                            }
                                        }
                                    }
                                },
                                "workers": {
                                    "total": 13.325565400202528,
                                    "count": 611400,
                                    "self": 0.0,
                                    "children": {
                                        "worker_root": {
                                            "total": 9597.390417099778,
                                            "count": 611400,
                                            "is_parallel": true,
                                            "self": 3583.325812499681,
                                            "children": {
                                                "steps_from_proto": {
                                                    "total": 0.00044740000000231817,
                                                    "count": 1,
                                                    "is_parallel": true,
                                                    "self": 0.0002635000000026366,
                                                    "children": {
                                                        "_process_rank_one_or_two_observation": {
                                                            "total": 0.00018389999999968154,
                                                            "count": 2,
                                                            "is_parallel": true,
                                                            "self": 0.00018389999999968154
                                                        }
                                                    }
                                                },
                                                "UnityEnvironment.step": {
                                                    "total": 6014.064157200097,
                                                    "count": 611400,
                                                    "is_parallel": true,
                                                    "self": 69.78344460041535,
                                                    "children": {
                                                        "UnityEnvironment._generate_step_input": {
                                                            "total": 57.83282509974434,
                                                            "count": 611400,
                                                            "is_parallel": true,
                                                            "self": 57.83282509974434
                                                        },
                                                        "communicator.exchange": {
                                                            "total": 5621.392799300169,
                                                            "count": 611400,
                                                            "is_parallel": true,
                                                            "self": 5621.392799300169
                                                        },
                                                        "steps_from_proto": {
                                                            "total": 265.05508819976774,
                                                            "count": 611400,
                                                            "is_parallel": true,
                                                            "self": 176.91608079953173,
                                                            "children": {
                                                                "_process_rank_one_or_two_observation": {
                                                                    "total": 88.13900740023601,
                                                                    "count": 1222800,
                                                                    "is_parallel": true,
                                                                    "self": 88.13900740023601
                                                                }
                                                            }
                                                        }
                                                    }
                                                }
                                            }
                                        }
                                    }
                                }
                            }
                        },
                        "trainer_advance": {
                            "total": 1551.6440440000297,
                            "count": 611400,
                            "self": 22.156162600194193,
                            "children": {
                                "process_trajectory": {
                                    "total": 58.5674406998388,
                                    "count": 611400,
                                    "self": 58.39772839983753,
                                    "children": {
                                        "RLTrainer._checkpoint": {
                                            "total": 0.16971230000126525,
                                            "count": 1,
                                            "self": 0.16971230000126525
                                        }
                                    }
                                },
                                "_update_policy": {
                                    "total": 1470.9204406999968,
                                    "count": 467,
                                    "self": 1026.6049479000185,
                                    "children": {
                                        "TorchPPOOptimizer.update": {
                                            "total": 165.93293180000956,
                                            "count": 5604,
                                            "self": 165.93293180000956
                                        },
                                        "TorchPolicy.sample_actions": {
                                            "total": 278.38256099996875,
                                            "count": 95268,
                                            "self": 278.38256099996875
                                        }
                                    }
                                }
                            }
                        }
                    }
                },
                "trainer_threads": {
                    "total": 1.7999991541728377e-06,
                    "count": 1,
                    "self": 1.7999991541728377e-06
                },
                "TrainerController._save_models": {
                    "total": 0.13882160000139265,
                    "count": 1,
                    "self": 0.01018110000222805,
                    "children": {
                        "RLTrainer._checkpoint": {
                            "total": 0.1286404999991646,
                            "count": 1,
                            "self": 0.1286404999991646
                        }
                    }
                }
            }
        }
    }
}