%YAML 1.1
%TAG !u! tag:unity3d.com,2011:
--- !u!74 &7400000
AnimationClip:
  m_ObjectHideFlags: 0
  m_CorrespondingSourceObject: {fileID: 0}
  m_PrefabInstance: {fileID: 0}
  m_PrefabAsset: {fileID: 0}
  m_Name: Jump
  serializedVersion: 6
  m_Legacy: 0
  m_Compressed: 0
  m_UseHighQualityCurve: 1
  m_RotationCurves: []
  m_CompressedRotationCurves: []
  m_EulerCurves: []
  m_PositionCurves: []
  m_ScaleCurves: []
  m_FloatCurves: []
  m_PPtrCurves:
  - curve:
    - time: 0
      value: {fileID: 21300000, guid: b078cea75aac2a74eaf0527afbd70d55, type: 3}
    - time: 0.016666668
      value: {fileID: 21300000, guid: 83d959f8c4b0dfa4ea0bf1a9a96fb4f5, type: 3}
    - time: 0.033333335
      value: {fileID: 21300000, guid: 413674898210c3446b57430a213745bc, type: 3}
    - time: 0.05
      value: {fileID: 21300000, guid: ab7d288af68c06541825da52d0847585, type: 3}
    - time: 0.06666667
      value: {fileID: 21300000, guid: da2f7ad8a8dbf8d4b82d8fa365ff117e, type: 3}
    - time: 0.083333336
      value: {fileID: 21300000, guid: a8dd6051d7ed68948ac4deb6694abef9, type: 3}
    - time: 0.1
      value: {fileID: 21300000, guid: 70b0a822f7060bf45a3be71b0ead509e, type: 3}
    - time: 0.11666667
      value: {fileID: 21300000, guid: 8ded2bc0f100a9a4797daa3448c1e4a7, type: 3}
    - time: 0.13333334
      value: {fileID: 21300000, guid: 1f8280780f5889f4da5b02ae426aa674, type: 3}
    - time: 0.15
      value: {fileID: 21300000, guid: 58cac7d914e67cf48bb5d828f5a46c05, type: 3}
    attribute: m_Sprite
    path: 
    classID: 212
    script: {fileID: 0}
  m_SampleRate: 60
  m_WrapMode: 0
  m_Bounds:
    m_Center: {x: 0, y: 0, z: 0}
    m_Extent: {x: 0, y: 0, z: 0}
  m_ClipBindingConstant:
    genericBindings:
    - serializedVersion: 2
      path: 0
      attribute: 0
      script: {fileID: 0}
      typeID: 212
      customType: 23
      isPPtrCurve: 1
    pptrCurveMapping:
    - {fileID: 21300000, guid: b078cea75aac2a74eaf0527afbd70d55, type: 3}
    - {fileID: 21300000, guid: 83d959f8c4b0dfa4ea0bf1a9a96fb4f5, type: 3}
    - {fileID: 21300000, guid: 413674898210c3446b57430a213745bc, type: 3}
    - {fileID: 21300000, guid: ab7d288af68c06541825da52d0847585, type: 3}
    - {fileID: 21300000, guid: da2f7ad8a8dbf8d4b82d8fa365ff117e, type: 3}
    - {fileID: 21300000, guid: a8dd6051d7ed68948ac4deb6694abef9, type: 3}
    - {fileID: 21300000, guid: 70b0a822f7060bf45a3be71b0ead509e, type: 3}
    - {fileID: 21300000, guid: 8ded2bc0f100a9a4797daa3448c1e4a7, type: 3}
    - {fileID: 21300000, guid: 1f8280780f5889f4da5b02ae426aa674, type: 3}
    - {fileID: 21300000, guid: 58cac7d914e67cf48bb5d828f5a46c05, type: 3}
  m_AnimationClipSettings:
    serializedVersion: 2
    m_AdditiveReferencePoseClip: {fileID: 0}
    m_AdditiveReferencePoseTime: 0
    m_StartTime: 0
    m_StopTime: 0.16666667
    m_OrientationOffsetY: 0
    m_Level: 0
    m_CycleOffset: 0
    m_HasAdditiveReferencePose: 0
    m_LoopTime: 0
    m_LoopBlend: 0
    m_LoopBlendOrientation: 0
    m_LoopBlendPositionY: 0
    m_LoopBlendPositionXZ: 0
    m_KeepOriginalOrientation: 0
    m_KeepOriginalPositionY: 1
    m_KeepOriginalPositionXZ: 0
    m_HeightFromFeet: 0
    m_Mirror: 0
  m_EditorCurves: []
  m_EulerEditorCurves: []
  m_HasGenericRootTransform: 0
  m_HasMotionFloatCurves: 0
  m_Events: []
