%YAML 1.1
%TAG !u! tag:unity3d.com,2011:
--- !u!1 &7849647726291860528
GameObject:
  m_ObjectHideFlags: 0
  m_CorrespondingSourceObject: {fileID: 0}
  m_PrefabInstance: {fileID: 0}
  m_PrefabAsset: {fileID: 0}
  serializedVersion: 6
  m_Component:
  - component: {fileID: 1652018786614530668}
  - component: {fileID: 7076313820134636920}
  - component: {fileID: 827090889637797158}
  - component: {fileID: 8284359742696807808}
  m_Layer: 2
  m_Name: ExpCristal
  m_TagString: Untagged
  m_Icon: {fileID: 0}
  m_NavMeshLayer: 0
  m_StaticEditorFlags: 0
  m_IsActive: 1
--- !u!4 &1652018786614530668
Transform:
  m_ObjectHideFlags: 0
  m_CorrespondingSourceObject: {fileID: 0}
  m_PrefabInstance: {fileID: 0}
  m_PrefabAsset: {fileID: 0}
  m_GameObject: {fileID: 7849647726291860528}
  m_LocalRotation: {x: 0, y: 0, z: -0.3212494, w: 0.9469946}
  m_LocalPosition: {x: 0.002, y: 0.003, z: 0}
  m_LocalScale: {x: 0.17886457, y: 0.17886457, z: 0.17886457}
  m_ConstrainProportionsScale: 0
  m_Children: []
  m_Father: {fileID: 0}
  m_RootOrder: 0
  m_LocalEulerAnglesHint: {x: 0, y: 0, z: -37.477}
--- !u!212 &7076313820134636920
SpriteRenderer:
  m_ObjectHideFlags: 0
  m_CorrespondingSourceObject: {fileID: 0}
  m_PrefabInstance: {fileID: 0}
  m_PrefabAsset: {fileID: 0}
  m_GameObject: {fileID: 7849647726291860528}
  m_Enabled: 1
  m_CastShadows: 0
  m_ReceiveShadows: 0
  m_DynamicOccludee: 1
  m_StaticShadowCaster: 0
  m_MotionVectors: 1
  m_LightProbeUsage: 1
  m_ReflectionProbeUsage: 1
  m_RayTracingMode: 0
  m_RayTraceProcedural: 0
  m_RenderingLayerMask: 1
  m_RendererPriority: 0
  m_Materials:
  - {fileID: 2100000, guid: a97c105638bdf8b4a8650670310a4cd3, type: 2}
  m_StaticBatchInfo:
    firstSubMesh: 0
    subMeshCount: 0
  m_StaticBatchRoot: {fileID: 0}
  m_ProbeAnchor: {fileID: 0}
  m_LightProbeVolumeOverride: {fileID: 0}
  m_ScaleInLightmap: 1
  m_ReceiveGI: 1
  m_PreserveUVs: 0
  m_IgnoreNormalsForChartDetection: 0
  m_ImportantGI: 0
  m_StitchLightmapSeams: 1
  m_SelectedEditorRenderState: 0
  m_MinimumChartSize: 4
  m_AutoUVMaxDistance: 0.5
  m_AutoUVMaxAngle: 89
  m_LightmapParameters: {fileID: 0}
  m_SortingLayerID: 0
  m_SortingLayer: 0
  m_SortingOrder: 8
  m_Sprite: {fileID: 21300000, guid: f59401c5c79564fd1ae3bfb0876455a7, type: 3}
  m_Color: {r: 0.754717, g: 0.754717, b: 0.754717, a: 1}
  m_FlipX: 0
  m_FlipY: 0
  m_DrawMode: 0
  m_Size: {x: 5.12, y: 5.12}
  m_AdaptiveModeThreshold: 0.5
  m_SpriteTileMode: 0
  m_WasSpriteAssigned: 1
  m_MaskInteraction: 0
  m_SpriteSortPoint: 0
--- !u!114 &827090889637797158
MonoBehaviour:
  m_ObjectHideFlags: 0
  m_CorrespondingSourceObject: {fileID: 0}
  m_PrefabInstance: {fileID: 0}
  m_PrefabAsset: {fileID: 0}
  m_GameObject: {fileID: 7849647726291860528}
  m_Enabled: 1
  m_EditorHideFlags: 0
  m_Script: {fileID: 11500000, guid: ff2329068e5a0584b92f869349e288da, type: 3}
  m_Name: 
  m_EditorClassIdentifier: 
--- !u!60 &8284359742696807808
PolygonCollider2D:
  m_ObjectHideFlags: 0
  m_CorrespondingSourceObject: {fileID: 0}
  m_PrefabInstance: {fileID: 0}
  m_PrefabAsset: {fileID: 0}
  m_GameObject: {fileID: 7849647726291860528}
  m_Enabled: 1
  m_Density: 1
  m_Material: {fileID: 0}
  m_IsTrigger: 1
  m_UsedByEffector: 0
  m_UsedByComposite: 0
  m_Offset: {x: 0, y: 0}
  m_SpriteTilingProperty:
    border: {x: 0, y: 0, z: 0, w: 0}
    pivot: {x: 0.5, y: 0.5}
    oldSize: {x: 5.12, y: 5.12}
    newSize: {x: 5.12, y: 5.12}
    adaptiveTilingThreshold: 0.5
    drawMode: 0
    adaptiveTiling: 0
  m_AutoTiling: 0
  m_Points:
    m_Paths:
    - - {x: 1.77, y: -2}
      - {x: 1.78, y: -1.88}
      - {x: 1.8499999, y: -0.96999997}
      - {x: 1.8499999, y: -0.9}
      - {x: 1.79, y: -0.78999996}
      - {x: 1.7099999, y: -0.68}
      - {x: 1.62, y: -0.53}
      - {x: 1.52, y: -0.38}
      - {x: 1.43, y: -0.24}
      - {x: 1.35, y: -0.13}
      - {x: 1.27, y: -0.01}
      - {x: 1.26, y: 0.02}
      - {x: 1.16, y: 0.17}
      - {x: 1.0699999, y: 0.31}
      - {x: 0.98999995, y: 0.42}
      - {x: 0.9, y: 0.57}
      - {x: 0.82, y: 0.68}
      - {x: 0.74, y: 0.79999995}
      - {x: 0.72999996, y: 0.83}
      - {x: 0.63, y: 0.97999996}
      - {x: 0.53999996, y: 1.12}
      - {x: 0.45999998, y: 1.23}
      - {x: 0.38, y: 1.35}
      - {x: 0.37, y: 1.38}
      - {x: 0.26999998, y: 1.53}
      - {x: 0.17999999, y: 1.67}
      - {x: 0.099999994, y: 1.78}
      - {x: 0.01, y: 1.93}
      - {x: -0.049999997, y: 2.02}
      - {x: -0.099999994, y: 2.09}
      - {x: -0.14999999, y: 2.1}
      - {x: -0.39999998, y: 2.1299999}
      - {x: -0.57, y: 2.1499999}
      - {x: -0.65, y: 2.1599998}
      - {x: -0.82, y: 2.18}
      - {x: -0.9, y: 2.19}
      - {x: -1.4, y: 2.25}
      - {x: -1.66, y: 2.28}
      - {x: -1.8299999, y: 2.29}
      - {x: -1.8499999, y: 2.27}
      - {x: -1.86, y: 2.21}
      - {x: -1.88, y: 2}
      - {x: -1.91, y: 1.6899999}
      - {x: -1.93, y: 1.48}
      - {x: -1.9399999, y: 1.37}
      - {x: -1.9599999, y: 1.16}
      - {x: -1.99, y: 0.84999996}
      - {x: -2.01, y: 0.64}
      - {x: -2.01, y: 0.58}
      - {x: -1.8499999, y: 0.39999998}
      - {x: -1.78, y: 0.32}
      - {x: -1.62, y: 0.14}
      - {x: -1.55, y: 0.06}
      - {x: -1.4, y: -0.11}
      - {x: -1.24, y: -0.29}
      - {x: -1.17, y: -0.37}
      - {x: -1.01, y: -0.55}
      - {x: -0.94, y: -0.63}
      - {x: -0.78, y: -0.81}
      - {x: -0.71, y: -0.89}
      - {x: -0.55, y: -1.0699999}
      - {x: -0.48, y: -1.15}
      - {x: -0.32, y: -1.3299999}
      - {x: -0.17, y: -1.5}
      - {x: -0.089999996, y: -1.5899999}
      - {x: 0.06, y: -1.76}
      - {x: 0.13, y: -1.8399999}
      - {x: 0.29, y: -2.02}
      - {x: 0.38, y: -2.1299999}
      - {x: 0.82, y: -2.22}
      - {x: 1.67, y: -2.3899999}
      - {x: 1.7199999, y: -2.3899999}
      - {x: 1.74, y: -2.37}
      - {x: 1.75, y: -2.26}
